[
  {
    "id": "2021-02-15T08:18:43.467Z",
    "text": "Sleep",
    "status": "PENDING"
  },
  {
    "id": "2021-02-15T08:19:20.171Z",
    "text": "Eat",
    "status": "ONGOING"
  },
  {
    "id": "2021-02-15T08:21:20.171Z",
    "text": "Code",
    "status": "DONE"
  }
]
